{
	"patients": [{
			"id": "1",
			"firstName": "John",
			"secondName": "Smith",
			"email": "test@test.com",
			"phone": "+390882723925",
			"garantor": true,
			"location": {
				"address": "1234 Main st",
				"addressAdditional": "Apartment, studio or floor",
				"city": "LA",
				"state": "California",
				"zip": "12345"
			},
			"procedures": [{
					"name": "wrapping",
					"amount": 4,
					"provider": "NDCH",
					"ensurance": true,
					"status": "inProgress"
				},
				{
					"name": "creating new",
					"amount": 22,
					"provider": "NDCH",
					"ensurance": true,
					"status": "complited"
				},
				{
					"name": "removing old",
					"amount": 1,
					"provider": "NDCH",
					"ensurance": false,
					"status": "complited"
				}
			]
		},
		{
			"id": "2",
			"firstName": "lana",
			"secondName": "Rock",
			"email": "lana@yahoo.com",
			"phone": "+390882723925",
			"garantor": false,
			"location": {
				"address": "1234 Vue st",
				"addressAdditional": "Apartment, studio or floor",
				"city": "New York",
				"state": "New York",
				"zip": "23456"
			},
			"procedures": [{
					"name": "cleaning",
					"amount": 13,
					"provider": "UCFC",
					"ensurance": true,
					"status": "inProgress"
				},
				{
					"name": "creating new",
					"amount": 7,
					"provider": "UCFC",
					"ensurance": true,
					"status": "complited"
				},
				{
					"name": "removing old",
					"amount": 3,
					"provider": "UCFC",
					"ensurance": false,
					"status": "complited"
				},
				{
					"name": "taking analysis",
					"amount": 1,
					"provider": "UCFC",
					"ensurance": false,
					"status": "complited"
				}
			]
		},
		{
			"id": "3",
			"firstName": "Patrick",
			"secondName": "Cash",
			"email": "Pat@gmail.com",
			"phone": "+390882723925",
			"garantor": false,
			"location": {
				"address": "6666 Secondary st",
				"addressAdditional": "Apartment, studio or floor",
				"city": "Dallas",
				"state": "Texas",
				"zip": "71293"
			},
			"procedures": [{
					"name": "examination",
					"amount": 1,
					"provider": "YYYY",
					"ensurance": false,
					"status": "inProgress"
				},
				{
					"name": "creating new",
					"amount": 2,
					"provider": "YYYY",
					"ensurance": false,
					"status": "complited"
				}
			]
		}
	]
}